{
    "/js/core/app.js": "/js/core/app.js",
    "/js/core/app-menu.js": "/js/core/app-menu.js",
    "/css/base/plugins/charts/chart-apex.css": "/css/base/plugins/charts/chart-apex.css",
    "/css/base/plugins/extensions/ext-component-context-menu.css": "/css/base/plugins/extensions/ext-component-context-menu.css",
    "/css/base/plugins/extensions/ext-component-drag-drop.css": "/css/base/plugins/extensions/ext-component-drag-drop.css",
    "/css/base/plugins/extensions/ext-component-media-player.css": "/css/base/plugins/extensions/ext-component-media-player.css",
    "/css/base/plugins/extensions/ext-component-ratings.css": "/css/base/plugins/extensions/ext-component-ratings.css",
    "/css/base/plugins/extensions/ext-component-sliders.css": "/css/base/plugins/extensions/ext-component-sliders.css",
    "/css/base/plugins/extensions/ext-component-sweet-alerts.css": "/css/base/plugins/extensions/ext-component-sweet-alerts.css",
    "/css/base/plugins/extensions/ext-component-swiper.css": "/css/base/plugins/extensions/ext-component-swiper.css",
    "/css/base/plugins/extensions/ext-component-toastr.css": "/css/base/plugins/extensions/ext-component-toastr.css",
    "/css/base/plugins/extensions/ext-component-tour.css": "/css/base/plugins/extensions/ext-component-tour.css",
    "/css/base/plugins/extensions/ext-component-tree.css": "/css/base/plugins/extensions/ext-component-tree.css",
    "/css/base/plugins/forms/form-file-uploader.css": "/css/base/plugins/forms/form-file-uploader.css",
    "/css/base/plugins/forms/form-number-input.css": "/css/base/plugins/forms/form-number-input.css",
    "/css/base/plugins/forms/form-quill-editor.css": "/css/base/plugins/forms/form-quill-editor.css",
    "/css/base/plugins/forms/form-validation.css": "/css/base/plugins/forms/form-validation.css",
    "/css/base/plugins/forms/form-wizard.css": "/css/base/plugins/forms/form-wizard.css",
    "/css/base/plugins/forms/pickers/form-flat-pickr.css": "/css/base/plugins/forms/pickers/form-flat-pickr.css",
    "/css/base/plugins/forms/pickers/form-pickadate.css": "/css/base/plugins/forms/pickers/form-pickadate.css",
    "/css/base/plugins/maps/map-leaflet.css": "/css/base/plugins/maps/map-leaflet.css",
    "/css/base/plugins/tables/table-ag-grid.css": "/css/base/plugins/tables/table-ag-grid.css",
    "/css/base/plugins/ui/coming-soon.css": "/css/base/plugins/ui/coming-soon.css",
    "/css/base/pages/app-calendar.css": "/css/base/pages/app-calendar.css",
    "/css/base/pages/app-chat-list.css": "/css/base/pages/app-chat-list.css",
    "/css/base/pages/app-chat.css": "/css/base/pages/app-chat.css",
    "/css/base/pages/app-ecommerce-details.css": "/css/base/pages/app-ecommerce-details.css",
    "/css/base/pages/app-ecommerce.css": "/css/base/pages/app-ecommerce.css",
    "/css/base/pages/app-email.css": "/css/base/pages/app-email.css",
    "/css/base/pages/app-file-manager.css": "/css/base/pages/app-file-manager.css",
    "/css/base/pages/app-invoice-list.css": "/css/base/pages/app-invoice-list.css",
    "/css/base/pages/app-invoice-print.css": "/css/base/pages/app-invoice-print.css",
    "/css/base/pages/app-invoice.css": "/css/base/pages/app-invoice.css",
    "/css/base/pages/app-kanban.css": "/css/base/pages/app-kanban.css",
    "/css/base/pages/app-todo.css": "/css/base/pages/app-todo.css",
    "/css/base/pages/app-user.css": "/css/base/pages/app-user.css",
    "/css/base/pages/dashboard-ecommerce.css": "/css/base/pages/dashboard-ecommerce.css",
    "/css/base/pages/page-auth.css": "/css/base/pages/page-auth.css",
    "/css/base/pages/page-blog.css": "/css/base/pages/page-blog.css",
    "/css/base/pages/page-coming-soon.css": "/css/base/pages/page-coming-soon.css",
    "/css/base/pages/page-faq.css": "/css/base/pages/page-faq.css",
    "/css/base/pages/page-knowledge-base.css": "/css/base/pages/page-knowledge-base.css",
    "/css/base/pages/page-misc.css": "/css/base/pages/page-misc.css",
    "/css/base/pages/page-pricing.css": "/css/base/pages/page-pricing.css",
    "/css/base/pages/page-profile.css": "/css/base/pages/page-profile.css",
    "/css/base/pages/ui-colors.css": "/css/base/pages/ui-colors.css",
    "/css/base/pages/ui-feather.css": "/css/base/pages/ui-feather.css",
    "/css/base/core/colors/palette-gradient.css": "/css/base/core/colors/palette-gradient.css",
    "/css/base/core/colors/palette-noui.css": "/css/base/core/colors/palette-noui.css",
    "/css/base/core/colors/palette-variables.css": "/css/base/core/colors/palette-variables.css",
    "/css/base/core/menu/menu-types/horizontal-menu.css": "/css/base/core/menu/menu-types/horizontal-menu.css",
    "/css/base/core/menu/menu-types/vertical-menu.css": "/css/base/core/menu/menu-types/vertical-menu.css",
    "/css/base/core/menu/menu-types/vertical-overlay-menu.css": "/css/base/core/menu/menu-types/vertical-overlay-menu.css",
    "/css/base/core/mixins/alert.css": "/css/base/core/mixins/alert.css",
    "/css/base/core/mixins/hex2rgb.css": "/css/base/core/mixins/hex2rgb.css",
    "/css/base/core/mixins/main-menu-mixin.css": "/css/base/core/mixins/main-menu-mixin.css",
    "/css/base/core/mixins/transitions.css": "/css/base/core/mixins/transitions.css",
    "/css/core.css": "/css/core.css",
    "/css/overrides.css": "/css/overrides.css",
    "/css/custom-rtl.css": "/css/custom-rtl.css",
    "/css/style-rtl.css": "/css/style-rtl.css",
    "/css/style.css": "/css/style.css",
    "/js/scripts/cards/card-advance.js": "/js/scripts/cards/card-advance.js",
    "/js/scripts/cards/card-analytics.js": "/js/scripts/cards/card-analytics.js",
    "/js/scripts/cards/card-statistics.js": "/js/scripts/cards/card-statistics.js",
    "/js/scripts/charts/chart-apex.js": "/js/scripts/charts/chart-apex.js",
    "/js/scripts/charts/chart-chartjs.js": "/js/scripts/charts/chart-chartjs.js",
    "/js/scripts/components/ajax-leadgen-delete.js": "/js/scripts/components/ajax-leadgen-delete.js",
    "/js/scripts/components/ajax-leadgen-edit.js": "/js/scripts/components/ajax-leadgen-edit.js",
    "/js/scripts/components/ajax-strategy-delete.js": "/js/scripts/components/ajax-strategy-delete.js",
    "/js/scripts/components/ajax-strategy-edit.js": "/js/scripts/components/ajax-strategy-edit.js",
    "/js/scripts/components/components-alerts.js": "/js/scripts/components/components-alerts.js",
    "/js/scripts/components/components-bs-toast.js": "/js/scripts/components/components-bs-toast.js",
    "/js/scripts/components/components-collapse.js": "/js/scripts/components/components-collapse.js",
    "/js/scripts/components/components-dropdowns.js": "/js/scripts/components/components-dropdowns.js",
    "/js/scripts/components/components-modals.js": "/js/scripts/components/components-modals.js",
    "/js/scripts/components/components-navs.js": "/js/scripts/components/components-navs.js",
    "/js/scripts/components/components-popovers.js": "/js/scripts/components/components-popovers.js",
    "/js/scripts/components/components-tooltips.js": "/js/scripts/components/components-tooltips.js",
    "/js/scripts/components/custom-select.js": "/js/scripts/components/custom-select.js",
    "/js/scripts/components/datatable.js": "/js/scripts/components/datatable.js",
    "/js/scripts/components/report-list.js": "/js/scripts/components/report-list.js",
    "/js/scripts/customizer.js": "/js/scripts/customizer.js",
    "/js/scripts/documentation.js": "/js/scripts/documentation.js",
    "/js/scripts/extensions/ext-component-blockui.js": "/js/scripts/extensions/ext-component-blockui.js",
    "/js/scripts/extensions/ext-component-clipboard.js": "/js/scripts/extensions/ext-component-clipboard.js",
    "/js/scripts/extensions/ext-component-context-menu.js": "/js/scripts/extensions/ext-component-context-menu.js",
    "/js/scripts/extensions/ext-component-drag-drop.js": "/js/scripts/extensions/ext-component-drag-drop.js",
    "/js/scripts/extensions/ext-component-i18n.js": "/js/scripts/extensions/ext-component-i18n.js",
    "/js/scripts/extensions/ext-component-media-player.js": "/js/scripts/extensions/ext-component-media-player.js",
    "/js/scripts/extensions/ext-component-ratings.js": "/js/scripts/extensions/ext-component-ratings.js",
    "/js/scripts/extensions/ext-component-sliders.js": "/js/scripts/extensions/ext-component-sliders.js",
    "/js/scripts/extensions/ext-component-sweet-alerts.js": "/js/scripts/extensions/ext-component-sweet-alerts.js",
    "/js/scripts/extensions/ext-component-sweet-alerts.min.js": "/js/scripts/extensions/ext-component-sweet-alerts.min.js",
    "/js/scripts/extensions/ext-component-swiper.js": "/js/scripts/extensions/ext-component-swiper.js",
    "/js/scripts/extensions/ext-component-toastr.js": "/js/scripts/extensions/ext-component-toastr.js",
    "/js/scripts/extensions/ext-component-tour.js": "/js/scripts/extensions/ext-component-tour.js",
    "/js/scripts/extensions/ext-component-tree.js": "/js/scripts/extensions/ext-component-tree.js",
    "/js/scripts/forms/form-file-uploader.js": "/js/scripts/forms/form-file-uploader.js",
    "/js/scripts/forms/form-input-mask.js": "/js/scripts/forms/form-input-mask.js",
    "/js/scripts/forms/form-number-input.js": "/js/scripts/forms/form-number-input.js",
    "/js/scripts/forms/form-quill-editor.js": "/js/scripts/forms/form-quill-editor.js",
    "/js/scripts/forms/form-repeater.js": "/js/scripts/forms/form-repeater.js",
    "/js/scripts/forms/form-select2.js": "/js/scripts/forms/form-select2.js",
    "/js/scripts/forms/form-tooltip-valid.js": "/js/scripts/forms/form-tooltip-valid.js",
    "/js/scripts/forms/form-validation.js": "/js/scripts/forms/form-validation.js",
    "/js/scripts/forms/form-wizard.js": "/js/scripts/forms/form-wizard.js",
    "/js/scripts/forms/pickers/form-pickers.js": "/js/scripts/forms/pickers/form-pickers.js",
    "/js/scripts/maps/map-leaflet.js": "/js/scripts/maps/map-leaflet.js",
    "/js/scripts/pages/app-calendar-events.js": "/js/scripts/pages/app-calendar-events.js",
    "/js/scripts/pages/app-calendar.js": "/js/scripts/pages/app-calendar.js",
    "/js/scripts/pages/app-chat.js": "/js/scripts/pages/app-chat.js",
    "/js/scripts/pages/app-ecommerce-checkout.js": "/js/scripts/pages/app-ecommerce-checkout.js",
    "/js/scripts/pages/app-ecommerce-details.js": "/js/scripts/pages/app-ecommerce-details.js",
    "/js/scripts/pages/app-ecommerce-wishlist.js": "/js/scripts/pages/app-ecommerce-wishlist.js",
    "/js/scripts/pages/app-ecommerce.js": "/js/scripts/pages/app-ecommerce.js",
    "/js/scripts/pages/app-email.js": "/js/scripts/pages/app-email.js",
    "/js/scripts/pages/app-file-manager.js": "/js/scripts/pages/app-file-manager.js",
    "/js/scripts/pages/app-invoice-list.js": "/js/scripts/pages/app-invoice-list.js",
    "/js/scripts/pages/app-invoice-print.js": "/js/scripts/pages/app-invoice-print.js",
    "/js/scripts/pages/app-invoice.js": "/js/scripts/pages/app-invoice.js",
    "/js/scripts/pages/app-kanban.js": "/js/scripts/pages/app-kanban.js",
    "/js/scripts/pages/app-todo.js": "/js/scripts/pages/app-todo.js",
    "/js/scripts/pages/app-user-edit.js": "/js/scripts/pages/app-user-edit.js",
    "/js/scripts/pages/app-user-list.js": "/js/scripts/pages/app-user-list.js",
    "/js/scripts/pages/app-user-view.js": "/js/scripts/pages/app-user-view.js",
    "/js/scripts/pages/dashboard-analytics.js": "/js/scripts/pages/dashboard-analytics.js",
    "/js/scripts/pages/dashboard-ecommerce.js": "/js/scripts/pages/dashboard-ecommerce.js",
    "/js/scripts/pages/page-account-settings.js": "/js/scripts/pages/page-account-settings.js",
    "/js/scripts/pages/page-auth-forgot-password.js": "/js/scripts/pages/page-auth-forgot-password.js",
    "/js/scripts/pages/page-auth-login.js": "/js/scripts/pages/page-auth-login.js",
    "/js/scripts/pages/page-auth-register.js": "/js/scripts/pages/page-auth-register.js",
    "/js/scripts/pages/page-auth-reset-password.js": "/js/scripts/pages/page-auth-reset-password.js",
    "/js/scripts/pages/page-blog-edit.js": "/js/scripts/pages/page-blog-edit.js",
    "/js/scripts/pages/page-knowledge-base.js": "/js/scripts/pages/page-knowledge-base.js",
    "/js/scripts/pages/page-pricing.js": "/js/scripts/pages/page-pricing.js",
    "/js/scripts/pages/page-profile.js": "/js/scripts/pages/page-profile.js",
    "/js/scripts/pagination/components-pagination.js": "/js/scripts/pagination/components-pagination.js",
    "/js/scripts/tables/table-ag-grid.js": "/js/scripts/tables/table-ag-grid.js",
    "/js/scripts/tables/table-datatables-advanced.js": "/js/scripts/tables/table-datatables-advanced.js",
    "/js/scripts/tables/table-datatables-basic.js": "/js/scripts/tables/table-datatables-basic.js",
    "/js/scripts/ui/ui-feather.js": "/js/scripts/ui/ui-feather.js",
    "/resources/js/scripts/components/ajax-leadgen-delete.js": "/resources/js/scripts/components/ajax-leadgen-delete.js",
    "/resources/js/scripts/components/ajax-leadgen-edit.js": "/resources/js/scripts/components/ajax-leadgen-edit.js",
    "/resources/js/scripts/components/ajax-strategy-delete.js": "/resources/js/scripts/components/ajax-strategy-delete.js",
    "/resources/js/scripts/components/ajax-strategy-edit.js": "/resources/js/scripts/components/ajax-strategy-edit.js",
    "/resources/js/scripts/components/datatable.js": "/resources/js/scripts/components/datatable.js",
    "/resources/js/scripts/components/report-list.js": "/resources/js/scripts/components/report-list.js",
    "/resources/js/scripts/components/custom-select.js": "/resources/js/scripts/components/custom-select.js",
    "/vendors/js/blockui/blockui.min.js": "/vendors/js/blockui/blockui.min.js",
    "/vendors/js/bootstrap/bootstrap.min.js": "/vendors/js/bootstrap/bootstrap.min.js",
    "/vendors/js/calendar/fullcalendar.min.js": "/vendors/js/calendar/fullcalendar.min.js",
    "/vendors/js/charts/apexcharts.js": "/vendors/js/charts/apexcharts.js",
    "/vendors/js/charts/apexcharts.min.js": "/vendors/js/charts/apexcharts.min.js",
    "/vendors/js/charts/chart.min.js": "/vendors/js/charts/chart.min.js",
    "/vendors/js/editors/quill/highlight.min.js": "/vendors/js/editors/quill/highlight.min.js",
    "/vendors/js/editors/quill/katex.min.js": "/vendors/js/editors/quill/katex.min.js",
    "/vendors/js/editors/quill/quill.js": "/vendors/js/editors/quill/quill.js",
    "/vendors/js/editors/quill/quill.min.js": "/vendors/js/editors/quill/quill.min.js",
    "/vendors/js/editors/quill/themes/base.js": "/vendors/js/editors/quill/themes/base.js",
    "/vendors/js/editors/quill/themes/bubble.js": "/vendors/js/editors/quill/themes/bubble.js",
    "/vendors/js/editors/quill/themes/snow.js": "/vendors/js/editors/quill/themes/snow.js",
    "/vendors/js/editors/quill/ui/color-picker.js": "/vendors/js/editors/quill/ui/color-picker.js",
    "/vendors/js/editors/quill/ui/icon-picker.js": "/vendors/js/editors/quill/ui/icon-picker.js",
    "/vendors/js/editors/quill/ui/icons.js": "/vendors/js/editors/quill/ui/icons.js",
    "/vendors/js/editors/quill/ui/picker.js": "/vendors/js/editors/quill/ui/picker.js",
    "/vendors/js/editors/quill/ui/tooltip.js": "/vendors/js/editors/quill/ui/tooltip.js",
    "/vendors/js/extensions/dataTables.checkboxes.min.js": "/vendors/js/extensions/dataTables.checkboxes.min.js",
    "/vendors/js/extensions/dragula.min.js": "/vendors/js/extensions/dragula.min.js",
    "/vendors/js/extensions/dropzone.min.js": "/vendors/js/extensions/dropzone.min.js",
    "/vendors/js/extensions/i18next.min.js": "/vendors/js/extensions/i18next.min.js",
    "/vendors/js/extensions/i18nextBrowserLanguageDetector.min.js": "/vendors/js/extensions/i18nextBrowserLanguageDetector.min.js",
    "/vendors/js/extensions/i18nextXHRBackend.min.js": "/vendors/js/extensions/i18nextXHRBackend.min.js",
    "/vendors/js/extensions/jquery-i18next.min.js": "/vendors/js/extensions/jquery-i18next.min.js",
    "/vendors/js/extensions/jquery.contextMenu.min.js": "/vendors/js/extensions/jquery.contextMenu.min.js",
    "/vendors/js/extensions/jquery.mousewheel.min.js": "/vendors/js/extensions/jquery.mousewheel.min.js",
    "/vendors/js/extensions/jquery.rateyo.min.js": "/vendors/js/extensions/jquery.rateyo.min.js",
    "/vendors/js/extensions/jquery.ui.position.min.js": "/vendors/js/extensions/jquery.ui.position.min.js",
    "/vendors/js/extensions/jstree.min.js": "/vendors/js/extensions/jstree.min.js",
    "/vendors/js/extensions/lang-all.js": "/vendors/js/extensions/lang-all.js",
    "/vendors/js/extensions/locale-all.js": "/vendors/js/extensions/locale-all.js",
    "/vendors/js/extensions/moment.min.js": "/vendors/js/extensions/moment.min.js",
    "/vendors/js/extensions/nouislider.min.js": "/vendors/js/extensions/nouislider.min.js",
    "/vendors/js/extensions/pace.min.js": "/vendors/js/extensions/pace.min.js",
    "/vendors/js/extensions/plyr.min.js": "/vendors/js/extensions/plyr.min.js",
    "/vendors/js/extensions/plyr.polyfilled.min.js": "/vendors/js/extensions/plyr.polyfilled.min.js",
    "/vendors/js/extensions/polyfill.min.js": "/vendors/js/extensions/polyfill.min.js",
    "/vendors/js/extensions/shepherd.min.js": "/vendors/js/extensions/shepherd.min.js",
    "/vendors/js/extensions/sweetalert2.all.min.js": "/vendors/js/extensions/sweetalert2.all.min.js",
    "/vendors/js/extensions/swiper.min.js": "/vendors/js/extensions/swiper.min.js",
    "/vendors/js/extensions/tether.min.js": "/vendors/js/extensions/tether.min.js",
    "/vendors/js/extensions/toastr.min.js": "/vendors/js/extensions/toastr.min.js",
    "/vendors/js/extensions/transition.js": "/vendors/js/extensions/transition.js",
    "/vendors/js/extensions/wNumb.min.js": "/vendors/js/extensions/wNumb.min.js",
    "/vendors/js/feather-icons/feather-icons.min.js": "/vendors/js/feather-icons/feather-icons.min.js",
    "/vendors/js/forms/cleave/addons/cleave-phone.ac.js": "/vendors/js/forms/cleave/addons/cleave-phone.ac.js",
    "/vendors/js/forms/cleave/addons/cleave-phone.ad.js": "/vendors/js/forms/cleave/addons/cleave-phone.ad.js",
    "/vendors/js/forms/cleave/addons/cleave-phone.ae.js": "/vendors/js/forms/cleave/addons/cleave-phone.ae.js",
    "/vendors/js/forms/cleave/addons/cleave-phone.af.js": "/vendors/js/forms/cleave/addons/cleave-phone.af.js",
    "/vendors/js/forms/cleave/addons/cleave-phone.ag.js": "/vendors/js/forms/cleave/addons/cleave-phone.ag.js",
    "/vendors/js/forms/cleave/addons/cleave-phone.ai.js": "/vendors/js/forms/cleave/addons/cleave-phone.ai.js",
    "/vendors/js/forms/cleave/addons/cleave-phone.al.js": "/vendors/js/forms/cleave/addons/cleave-phone.al.js",
    "/vendors/js/forms/cleave/addons/cleave-phone.am.js": "/vendors/js/forms/cleave/addons/cleave-phone.am.js",
    "/vendors/js/forms/cleave/addons/cleave-phone.ao.js": "/vendors/js/forms/cleave/addons/cleave-phone.ao.js",
    "/vendors/js/forms/cleave/addons/cleave-phone.ar.js": "/vendors/js/forms/cleave/addons/cleave-phone.ar.js",
    "/vendors/js/forms/cleave/addons/cleave-phone.as.js": "/vendors/js/forms/cleave/addons/cleave-phone.as.js",
    "/vendors/js/forms/cleave/addons/cleave-phone.at.js": "/vendors/js/forms/cleave/addons/cleave-phone.at.js",
    "/vendors/js/forms/cleave/addons/cleave-phone.au-cn.js": "/vendors/js/forms/cleave/addons/cleave-phone.au-cn.js",
    "/vendors/js/forms/cleave/addons/cleave-phone.au.js": "/vendors/js/forms/cleave/addons/cleave-phone.au.js",
    "/vendors/js/forms/cleave/addons/cleave-phone.aw.js": "/vendors/js/forms/cleave/addons/cleave-phone.aw.js",
    "/vendors/js/forms/cleave/addons/cleave-phone.ax.js": "/vendors/js/forms/cleave/addons/cleave-phone.ax.js",
    "/vendors/js/forms/cleave/addons/cleave-phone.az.js": "/vendors/js/forms/cleave/addons/cleave-phone.az.js",
    "/vendors/js/forms/cleave/addons/cleave-phone.ba.js": "/vendors/js/forms/cleave/addons/cleave-phone.ba.js",
    "/vendors/js/forms/cleave/addons/cleave-phone.bb.js": "/vendors/js/forms/cleave/addons/cleave-phone.bb.js",
    "/vendors/js/forms/cleave/addons/cleave-phone.bd.js": "/vendors/js/forms/cleave/addons/cleave-phone.bd.js",
    "/vendors/js/forms/cleave/addons/cleave-phone.be.js": "/vendors/js/forms/cleave/addons/cleave-phone.be.js",
    "/vendors/js/forms/cleave/addons/cleave-phone.bf.js": "/vendors/js/forms/cleave/addons/cleave-phone.bf.js",
    "/vendors/js/forms/cleave/addons/cleave-phone.bg.js": "/vendors/js/forms/cleave/addons/cleave-phone.bg.js",
    "/vendors/js/forms/cleave/addons/cleave-phone.bh.js": "/vendors/js/forms/cleave/addons/cleave-phone.bh.js",
    "/vendors/js/forms/cleave/addons/cleave-phone.bi.js": "/vendors/js/forms/cleave/addons/cleave-phone.bi.js",
    "/vendors/js/forms/cleave/addons/cleave-phone.bj.js": "/vendors/js/forms/cleave/addons/cleave-phone.bj.js",
    "/vendors/js/forms/cleave/addons/cleave-phone.bl.js": "/vendors/js/forms/cleave/addons/cleave-phone.bl.js",
    "/vendors/js/forms/cleave/addons/cleave-phone.bm.js": "/vendors/js/forms/cleave/addons/cleave-phone.bm.js",
    "/vendors/js/forms/cleave/addons/cleave-phone.bn.js": "/vendors/js/forms/cleave/addons/cleave-phone.bn.js",
    "/vendors/js/forms/cleave/addons/cleave-phone.bo.js": "/vendors/js/forms/cleave/addons/cleave-phone.bo.js",
    "/vendors/js/forms/cleave/addons/cleave-phone.bq.js": "/vendors/js/forms/cleave/addons/cleave-phone.bq.js",
    "/vendors/js/forms/cleave/addons/cleave-phone.br.js": "/vendors/js/forms/cleave/addons/cleave-phone.br.js",
    "/vendors/js/forms/cleave/addons/cleave-phone.bs.js": "/vendors/js/forms/cleave/addons/cleave-phone.bs.js",
    "/vendors/js/forms/cleave/addons/cleave-phone.bt.js": "/vendors/js/forms/cleave/addons/cleave-phone.bt.js",
    "/vendors/js/forms/cleave/addons/cleave-phone.bw.js": "/vendors/js/forms/cleave/addons/cleave-phone.bw.js",
    "/vendors/js/forms/cleave/addons/cleave-phone.by.js": "/vendors/js/forms/cleave/addons/cleave-phone.by.js",
    "/vendors/js/forms/cleave/addons/cleave-phone.bz.js": "/vendors/js/forms/cleave/addons/cleave-phone.bz.js",
    "/vendors/js/forms/cleave/addons/cleave-phone.ca.js": "/vendors/js/forms/cleave/addons/cleave-phone.ca.js",
    "/vendors/js/forms/cleave/addons/cleave-phone.cc.js": "/vendors/js/forms/cleave/addons/cleave-phone.cc.js",
    "/vendors/js/forms/cleave/addons/cleave-phone.cd.js": "/vendors/js/forms/cleave/addons/cleave-phone.cd.js",
    "/vendors/js/forms/cleave/addons/cleave-phone.cf.js": "/vendors/js/forms/cleave/addons/cleave-phone.cf.js",
    "/vendors/js/forms/cleave/addons/cleave-phone.cg.js": "/vendors/js/forms/cleave/addons/cleave-phone.cg.js",
    "/vendors/js/forms/cleave/addons/cleave-phone.ch.js": "/vendors/js/forms/cleave/addons/cleave-phone.ch.js",
    "/vendors/js/forms/cleave/addons/cleave-phone.ci.js": "/vendors/js/forms/cleave/addons/cleave-phone.ci.js",
    "/vendors/js/forms/cleave/addons/cleave-phone.ck.js": "/vendors/js/forms/cleave/addons/cleave-phone.ck.js",
    "/vendors/js/forms/cleave/addons/cleave-phone.cl.js": "/vendors/js/forms/cleave/addons/cleave-phone.cl.js",
    "/vendors/js/forms/cleave/addons/cleave-phone.cm.js": "/vendors/js/forms/cleave/addons/cleave-phone.cm.js",
    "/vendors/js/forms/cleave/addons/cleave-phone.cn.js": "/vendors/js/forms/cleave/addons/cleave-phone.cn.js",
    "/vendors/js/forms/cleave/addons/cleave-phone.co.js": "/vendors/js/forms/cleave/addons/cleave-phone.co.js",
    "/vendors/js/forms/cleave/addons/cleave-phone.cr.js": "/vendors/js/forms/cleave/addons/cleave-phone.cr.js",
    "/vendors/js/forms/cleave/addons/cleave-phone.cu.js": "/vendors/js/forms/cleave/addons/cleave-phone.cu.js",
    "/vendors/js/forms/cleave/addons/cleave-phone.cv.js": "/vendors/js/forms/cleave/addons/cleave-phone.cv.js",
    "/vendors/js/forms/cleave/addons/cleave-phone.cw.js": "/vendors/js/forms/cleave/addons/cleave-phone.cw.js",
    "/vendors/js/forms/cleave/addons/cleave-phone.cx.js": "/vendors/js/forms/cleave/addons/cleave-phone.cx.js",
    "/vendors/js/forms/cleave/addons/cleave-phone.cy.js": "/vendors/js/forms/cleave/addons/cleave-phone.cy.js",
    "/vendors/js/forms/cleave/addons/cleave-phone.cz.js": "/vendors/js/forms/cleave/addons/cleave-phone.cz.js",
    "/vendors/js/forms/cleave/addons/cleave-phone.de.js": "/vendors/js/forms/cleave/addons/cleave-phone.de.js",
    "/vendors/js/forms/cleave/addons/cleave-phone.dj.js": "/vendors/js/forms/cleave/addons/cleave-phone.dj.js",
    "/vendors/js/forms/cleave/addons/cleave-phone.dk.js": "/vendors/js/forms/cleave/addons/cleave-phone.dk.js",
    "/vendors/js/forms/cleave/addons/cleave-phone.dm.js": "/vendors/js/forms/cleave/addons/cleave-phone.dm.js",
    "/vendors/js/forms/cleave/addons/cleave-phone.do.js": "/vendors/js/forms/cleave/addons/cleave-phone.do.js",
    "/vendors/js/forms/cleave/addons/cleave-phone.dz.js": "/vendors/js/forms/cleave/addons/cleave-phone.dz.js",
    "/vendors/js/forms/cleave/addons/cleave-phone.ec.js": "/vendors/js/forms/cleave/addons/cleave-phone.ec.js",
    "/vendors/js/forms/cleave/addons/cleave-phone.ee.js": "/vendors/js/forms/cleave/addons/cleave-phone.ee.js",
    "/vendors/js/forms/cleave/addons/cleave-phone.eg.js": "/vendors/js/forms/cleave/addons/cleave-phone.eg.js",
    "/vendors/js/forms/cleave/addons/cleave-phone.eh.js": "/vendors/js/forms/cleave/addons/cleave-phone.eh.js",
    "/vendors/js/forms/cleave/addons/cleave-phone.er.js": "/vendors/js/forms/cleave/addons/cleave-phone.er.js",
    "/vendors/js/forms/cleave/addons/cleave-phone.es.js": "/vendors/js/forms/cleave/addons/cleave-phone.es.js",
    "/vendors/js/forms/cleave/addons/cleave-phone.et.js": "/vendors/js/forms/cleave/addons/cleave-phone.et.js",
    "/vendors/js/forms/cleave/addons/cleave-phone.fi.js": "/vendors/js/forms/cleave/addons/cleave-phone.fi.js",
    "/vendors/js/forms/cleave/addons/cleave-phone.fj.js": "/vendors/js/forms/cleave/addons/cleave-phone.fj.js",
    "/vendors/js/forms/cleave/addons/cleave-phone.fk.js": "/vendors/js/forms/cleave/addons/cleave-phone.fk.js",
    "/vendors/js/forms/cleave/addons/cleave-phone.fm.js": "/vendors/js/forms/cleave/addons/cleave-phone.fm.js",
    "/vendors/js/forms/cleave/addons/cleave-phone.fo.js": "/vendors/js/forms/cleave/addons/cleave-phone.fo.js",
    "/vendors/js/forms/cleave/addons/cleave-phone.fr.js": "/vendors/js/forms/cleave/addons/cleave-phone.fr.js",
    "/vendors/js/forms/cleave/addons/cleave-phone.ga.js": "/vendors/js/forms/cleave/addons/cleave-phone.ga.js",
    "/vendors/js/forms/cleave/addons/cleave-phone.gb.js": "/vendors/js/forms/cleave/addons/cleave-phone.gb.js",
    "/vendors/js/forms/cleave/addons/cleave-phone.gd.js": "/vendors/js/forms/cleave/addons/cleave-phone.gd.js",
    "/vendors/js/forms/cleave/addons/cleave-phone.ge.js": "/vendors/js/forms/cleave/addons/cleave-phone.ge.js",
    "/vendors/js/forms/cleave/addons/cleave-phone.gf.js": "/vendors/js/forms/cleave/addons/cleave-phone.gf.js",
    "/vendors/js/forms/cleave/addons/cleave-phone.gg.js": "/vendors/js/forms/cleave/addons/cleave-phone.gg.js",
    "/vendors/js/forms/cleave/addons/cleave-phone.gh.js": "/vendors/js/forms/cleave/addons/cleave-phone.gh.js",
    "/vendors/js/forms/cleave/addons/cleave-phone.gi.js": "/vendors/js/forms/cleave/addons/cleave-phone.gi.js",
    "/vendors/js/forms/cleave/addons/cleave-phone.gl.js": "/vendors/js/forms/cleave/addons/cleave-phone.gl.js",
    "/vendors/js/forms/cleave/addons/cleave-phone.gm.js": "/vendors/js/forms/cleave/addons/cleave-phone.gm.js",
    "/vendors/js/forms/cleave/addons/cleave-phone.gn.js": "/vendors/js/forms/cleave/addons/cleave-phone.gn.js",
    "/vendors/js/forms/cleave/addons/cleave-phone.gp.js": "/vendors/js/forms/cleave/addons/cleave-phone.gp.js",
    "/vendors/js/forms/cleave/addons/cleave-phone.gq.js": "/vendors/js/forms/cleave/addons/cleave-phone.gq.js",
    "/vendors/js/forms/cleave/addons/cleave-phone.gr.js": "/vendors/js/forms/cleave/addons/cleave-phone.gr.js",
    "/vendors/js/forms/cleave/addons/cleave-phone.gt.js": "/vendors/js/forms/cleave/addons/cleave-phone.gt.js",
    "/vendors/js/forms/cleave/addons/cleave-phone.gu.js": "/vendors/js/forms/cleave/addons/cleave-phone.gu.js",
    "/vendors/js/forms/cleave/addons/cleave-phone.gw.js": "/vendors/js/forms/cleave/addons/cleave-phone.gw.js",
    "/vendors/js/forms/cleave/addons/cleave-phone.gy.js": "/vendors/js/forms/cleave/addons/cleave-phone.gy.js",
    "/vendors/js/forms/cleave/addons/cleave-phone.hk.js": "/vendors/js/forms/cleave/addons/cleave-phone.hk.js",
    "/vendors/js/forms/cleave/addons/cleave-phone.hn.js": "/vendors/js/forms/cleave/addons/cleave-phone.hn.js",
    "/vendors/js/forms/cleave/addons/cleave-phone.hr.js": "/vendors/js/forms/cleave/addons/cleave-phone.hr.js",
    "/vendors/js/forms/cleave/addons/cleave-phone.ht.js": "/vendors/js/forms/cleave/addons/cleave-phone.ht.js",
    "/vendors/js/forms/cleave/addons/cleave-phone.hu.js": "/vendors/js/forms/cleave/addons/cleave-phone.hu.js",
    "/vendors/js/forms/cleave/addons/cleave-phone.i18n.js": "/vendors/js/forms/cleave/addons/cleave-phone.i18n.js",
    "/vendors/js/forms/cleave/addons/cleave-phone.id.js": "/vendors/js/forms/cleave/addons/cleave-phone.id.js",
    "/vendors/js/forms/cleave/addons/cleave-phone.ie.js": "/vendors/js/forms/cleave/addons/cleave-phone.ie.js",
    "/vendors/js/forms/cleave/addons/cleave-phone.il.js": "/vendors/js/forms/cleave/addons/cleave-phone.il.js",
    "/vendors/js/forms/cleave/addons/cleave-phone.im.js": "/vendors/js/forms/cleave/addons/cleave-phone.im.js",
    "/vendors/js/forms/cleave/addons/cleave-phone.in.js": "/vendors/js/forms/cleave/addons/cleave-phone.in.js",
    "/vendors/js/forms/cleave/addons/cleave-phone.io.js": "/vendors/js/forms/cleave/addons/cleave-phone.io.js",
    "/vendors/js/forms/cleave/addons/cleave-phone.iq.js": "/vendors/js/forms/cleave/addons/cleave-phone.iq.js",
    "/vendors/js/forms/cleave/addons/cleave-phone.ir.js": "/vendors/js/forms/cleave/addons/cleave-phone.ir.js",
    "/vendors/js/forms/cleave/addons/cleave-phone.is.js": "/vendors/js/forms/cleave/addons/cleave-phone.is.js",
    "/vendors/js/forms/cleave/addons/cleave-phone.it.js": "/vendors/js/forms/cleave/addons/cleave-phone.it.js",
    "/vendors/js/forms/cleave/addons/cleave-phone.je.js": "/vendors/js/forms/cleave/addons/cleave-phone.je.js",
    "/vendors/js/forms/cleave/addons/cleave-phone.jm.js": "/vendors/js/forms/cleave/addons/cleave-phone.jm.js",
    "/vendors/js/forms/cleave/addons/cleave-phone.jo.js": "/vendors/js/forms/cleave/addons/cleave-phone.jo.js",
    "/vendors/js/forms/cleave/addons/cleave-phone.jp.js": "/vendors/js/forms/cleave/addons/cleave-phone.jp.js",
    "/vendors/js/forms/cleave/addons/cleave-phone.ke.js": "/vendors/js/forms/cleave/addons/cleave-phone.ke.js",
    "/vendors/js/forms/cleave/addons/cleave-phone.kg.js": "/vendors/js/forms/cleave/addons/cleave-phone.kg.js",
    "/vendors/js/forms/cleave/addons/cleave-phone.kh.js": "/vendors/js/forms/cleave/addons/cleave-phone.kh.js",
    "/vendors/js/forms/cleave/addons/cleave-phone.ki.js": "/vendors/js/forms/cleave/addons/cleave-phone.ki.js",
    "/vendors/js/forms/cleave/addons/cleave-phone.km.js": "/vendors/js/forms/cleave/addons/cleave-phone.km.js",
    "/vendors/js/forms/cleave/addons/cleave-phone.kn.js": "/vendors/js/forms/cleave/addons/cleave-phone.kn.js",
    "/vendors/js/forms/cleave/addons/cleave-phone.kp.js": "/vendors/js/forms/cleave/addons/cleave-phone.kp.js",
    "/vendors/js/forms/cleave/addons/cleave-phone.kr.js": "/vendors/js/forms/cleave/addons/cleave-phone.kr.js",
    "/vendors/js/forms/cleave/addons/cleave-phone.kw.js": "/vendors/js/forms/cleave/addons/cleave-phone.kw.js",
    "/vendors/js/forms/cleave/addons/cleave-phone.ky.js": "/vendors/js/forms/cleave/addons/cleave-phone.ky.js",
    "/vendors/js/forms/cleave/addons/cleave-phone.kz.js": "/vendors/js/forms/cleave/addons/cleave-phone.kz.js",
    "/vendors/js/forms/cleave/addons/cleave-phone.la.js": "/vendors/js/forms/cleave/addons/cleave-phone.la.js",
    "/vendors/js/forms/cleave/addons/cleave-phone.lb.js": "/vendors/js/forms/cleave/addons/cleave-phone.lb.js",
    "/vendors/js/forms/cleave/addons/cleave-phone.lc.js": "/vendors/js/forms/cleave/addons/cleave-phone.lc.js",
    "/vendors/js/forms/cleave/addons/cleave-phone.li.js": "/vendors/js/forms/cleave/addons/cleave-phone.li.js",
    "/vendors/js/forms/cleave/addons/cleave-phone.lk.js": "/vendors/js/forms/cleave/addons/cleave-phone.lk.js",
    "/vendors/js/forms/cleave/addons/cleave-phone.lr.js": "/vendors/js/forms/cleave/addons/cleave-phone.lr.js",
    "/vendors/js/forms/cleave/addons/cleave-phone.ls.js": "/vendors/js/forms/cleave/addons/cleave-phone.ls.js",
    "/vendors/js/forms/cleave/addons/cleave-phone.lt.js": "/vendors/js/forms/cleave/addons/cleave-phone.lt.js",
    "/vendors/js/forms/cleave/addons/cleave-phone.lu.js": "/vendors/js/forms/cleave/addons/cleave-phone.lu.js",
    "/vendors/js/forms/cleave/addons/cleave-phone.lv.js": "/vendors/js/forms/cleave/addons/cleave-phone.lv.js",
    "/vendors/js/forms/cleave/addons/cleave-phone.ly.js": "/vendors/js/forms/cleave/addons/cleave-phone.ly.js",
    "/vendors/js/forms/cleave/addons/cleave-phone.ma.js": "/vendors/js/forms/cleave/addons/cleave-phone.ma.js",
    "/vendors/js/forms/cleave/addons/cleave-phone.mc.js": "/vendors/js/forms/cleave/addons/cleave-phone.mc.js",
    "/vendors/js/forms/cleave/addons/cleave-phone.md.js": "/vendors/js/forms/cleave/addons/cleave-phone.md.js",
    "/vendors/js/forms/cleave/addons/cleave-phone.me.js": "/vendors/js/forms/cleave/addons/cleave-phone.me.js",
    "/vendors/js/forms/cleave/addons/cleave-phone.mf.js": "/vendors/js/forms/cleave/addons/cleave-phone.mf.js",
    "/vendors/js/forms/cleave/addons/cleave-phone.mg.js": "/vendors/js/forms/cleave/addons/cleave-phone.mg.js",
    "/vendors/js/forms/cleave/addons/cleave-phone.mh.js": "/vendors/js/forms/cleave/addons/cleave-phone.mh.js",
    "/vendors/js/forms/cleave/addons/cleave-phone.mk.js": "/vendors/js/forms/cleave/addons/cleave-phone.mk.js",
    "/vendors/js/forms/cleave/addons/cleave-phone.ml.js": "/vendors/js/forms/cleave/addons/cleave-phone.ml.js",
    "/vendors/js/forms/cleave/addons/cleave-phone.mm.js": "/vendors/js/forms/cleave/addons/cleave-phone.mm.js",
    "/vendors/js/forms/cleave/addons/cleave-phone.mn.js": "/vendors/js/forms/cleave/addons/cleave-phone.mn.js",
    "/vendors/js/forms/cleave/addons/cleave-phone.mo.js": "/vendors/js/forms/cleave/addons/cleave-phone.mo.js",
    "/vendors/js/forms/cleave/addons/cleave-phone.mp.js": "/vendors/js/forms/cleave/addons/cleave-phone.mp.js",
    "/vendors/js/forms/cleave/addons/cleave-phone.mq.js": "/vendors/js/forms/cleave/addons/cleave-phone.mq.js",
    "/vendors/js/forms/cleave/addons/cleave-phone.mr.js": "/vendors/js/forms/cleave/addons/cleave-phone.mr.js",
    "/vendors/js/forms/cleave/addons/cleave-phone.ms.js": "/vendors/js/forms/cleave/addons/cleave-phone.ms.js",
    "/vendors/js/forms/cleave/addons/cleave-phone.mt.js": "/vendors/js/forms/cleave/addons/cleave-phone.mt.js",
    "/vendors/js/forms/cleave/addons/cleave-phone.mu.js": "/vendors/js/forms/cleave/addons/cleave-phone.mu.js",
    "/vendors/js/forms/cleave/addons/cleave-phone.mv.js": "/vendors/js/forms/cleave/addons/cleave-phone.mv.js",
    "/vendors/js/forms/cleave/addons/cleave-phone.mw.js": "/vendors/js/forms/cleave/addons/cleave-phone.mw.js",
    "/vendors/js/forms/cleave/addons/cleave-phone.mx.js": "/vendors/js/forms/cleave/addons/cleave-phone.mx.js",
    "/vendors/js/forms/cleave/addons/cleave-phone.my.js": "/vendors/js/forms/cleave/addons/cleave-phone.my.js",
    "/vendors/js/forms/cleave/addons/cleave-phone.mz.js": "/vendors/js/forms/cleave/addons/cleave-phone.mz.js",
    "/vendors/js/forms/cleave/addons/cleave-phone.na.js": "/vendors/js/forms/cleave/addons/cleave-phone.na.js",
    "/vendors/js/forms/cleave/addons/cleave-phone.nc.js": "/vendors/js/forms/cleave/addons/cleave-phone.nc.js",
    "/vendors/js/forms/cleave/addons/cleave-phone.ne.js": "/vendors/js/forms/cleave/addons/cleave-phone.ne.js",
    "/vendors/js/forms/cleave/addons/cleave-phone.nf.js": "/vendors/js/forms/cleave/addons/cleave-phone.nf.js",
    "/vendors/js/forms/cleave/addons/cleave-phone.ng.js": "/vendors/js/forms/cleave/addons/cleave-phone.ng.js",
    "/vendors/js/forms/cleave/addons/cleave-phone.ni.js": "/vendors/js/forms/cleave/addons/cleave-phone.ni.js",
    "/vendors/js/forms/cleave/addons/cleave-phone.nl.js": "/vendors/js/forms/cleave/addons/cleave-phone.nl.js",
    "/vendors/js/forms/cleave/addons/cleave-phone.no.js": "/vendors/js/forms/cleave/addons/cleave-phone.no.js",
    "/vendors/js/forms/cleave/addons/cleave-phone.np.js": "/vendors/js/forms/cleave/addons/cleave-phone.np.js",
    "/vendors/js/forms/cleave/addons/cleave-phone.nr.js": "/vendors/js/forms/cleave/addons/cleave-phone.nr.js",
    "/vendors/js/forms/cleave/addons/cleave-phone.nu.js": "/vendors/js/forms/cleave/addons/cleave-phone.nu.js",
    "/vendors/js/forms/cleave/addons/cleave-phone.nz.js": "/vendors/js/forms/cleave/addons/cleave-phone.nz.js",
    "/vendors/js/forms/cleave/addons/cleave-phone.om.js": "/vendors/js/forms/cleave/addons/cleave-phone.om.js",
    "/vendors/js/forms/cleave/addons/cleave-phone.pa.js": "/vendors/js/forms/cleave/addons/cleave-phone.pa.js",
    "/vendors/js/forms/cleave/addons/cleave-phone.pe.js": "/vendors/js/forms/cleave/addons/cleave-phone.pe.js",
    "/vendors/js/forms/cleave/addons/cleave-phone.pf.js": "/vendors/js/forms/cleave/addons/cleave-phone.pf.js",
    "/vendors/js/forms/cleave/addons/cleave-phone.pg.js": "/vendors/js/forms/cleave/addons/cleave-phone.pg.js",
    "/vendors/js/forms/cleave/addons/cleave-phone.ph.js": "/vendors/js/forms/cleave/addons/cleave-phone.ph.js",
    "/vendors/js/forms/cleave/addons/cleave-phone.pk.js": "/vendors/js/forms/cleave/addons/cleave-phone.pk.js",
    "/vendors/js/forms/cleave/addons/cleave-phone.pl.js": "/vendors/js/forms/cleave/addons/cleave-phone.pl.js",
    "/vendors/js/forms/cleave/addons/cleave-phone.pm.js": "/vendors/js/forms/cleave/addons/cleave-phone.pm.js",
    "/vendors/js/forms/cleave/addons/cleave-phone.pr.js": "/vendors/js/forms/cleave/addons/cleave-phone.pr.js",
    "/vendors/js/forms/cleave/addons/cleave-phone.ps.js": "/vendors/js/forms/cleave/addons/cleave-phone.ps.js",
    "/vendors/js/forms/cleave/addons/cleave-phone.pt.js": "/vendors/js/forms/cleave/addons/cleave-phone.pt.js",
    "/vendors/js/forms/cleave/addons/cleave-phone.pw.js": "/vendors/js/forms/cleave/addons/cleave-phone.pw.js",
    "/vendors/js/forms/cleave/addons/cleave-phone.py.js": "/vendors/js/forms/cleave/addons/cleave-phone.py.js",
    "/vendors/js/forms/cleave/addons/cleave-phone.qa.js": "/vendors/js/forms/cleave/addons/cleave-phone.qa.js",
    "/vendors/js/forms/cleave/addons/cleave-phone.re.js": "/vendors/js/forms/cleave/addons/cleave-phone.re.js",
    "/vendors/js/forms/cleave/addons/cleave-phone.ro.js": "/vendors/js/forms/cleave/addons/cleave-phone.ro.js",
    "/vendors/js/forms/cleave/addons/cleave-phone.rs.js": "/vendors/js/forms/cleave/addons/cleave-phone.rs.js",
    "/vendors/js/forms/cleave/addons/cleave-phone.ru.js": "/vendors/js/forms/cleave/addons/cleave-phone.ru.js",
    "/vendors/js/forms/cleave/addons/cleave-phone.rw.js": "/vendors/js/forms/cleave/addons/cleave-phone.rw.js",
    "/vendors/js/forms/cleave/addons/cleave-phone.sa.js": "/vendors/js/forms/cleave/addons/cleave-phone.sa.js",
    "/vendors/js/forms/cleave/addons/cleave-phone.sb.js": "/vendors/js/forms/cleave/addons/cleave-phone.sb.js",
    "/vendors/js/forms/cleave/addons/cleave-phone.sc.js": "/vendors/js/forms/cleave/addons/cleave-phone.sc.js",
    "/vendors/js/forms/cleave/addons/cleave-phone.sd.js": "/vendors/js/forms/cleave/addons/cleave-phone.sd.js",
    "/vendors/js/forms/cleave/addons/cleave-phone.se.js": "/vendors/js/forms/cleave/addons/cleave-phone.se.js",
    "/vendors/js/forms/cleave/addons/cleave-phone.sg.js": "/vendors/js/forms/cleave/addons/cleave-phone.sg.js",
    "/vendors/js/forms/cleave/addons/cleave-phone.sh.js": "/vendors/js/forms/cleave/addons/cleave-phone.sh.js",
    "/vendors/js/forms/cleave/addons/cleave-phone.si.js": "/vendors/js/forms/cleave/addons/cleave-phone.si.js",
    "/vendors/js/forms/cleave/addons/cleave-phone.sj.js": "/vendors/js/forms/cleave/addons/cleave-phone.sj.js",
    "/vendors/js/forms/cleave/addons/cleave-phone.sk.js": "/vendors/js/forms/cleave/addons/cleave-phone.sk.js",
    "/vendors/js/forms/cleave/addons/cleave-phone.sl.js": "/vendors/js/forms/cleave/addons/cleave-phone.sl.js",
    "/vendors/js/forms/cleave/addons/cleave-phone.sm.js": "/vendors/js/forms/cleave/addons/cleave-phone.sm.js",
    "/vendors/js/forms/cleave/addons/cleave-phone.sn.js": "/vendors/js/forms/cleave/addons/cleave-phone.sn.js",
    "/vendors/js/forms/cleave/addons/cleave-phone.so.js": "/vendors/js/forms/cleave/addons/cleave-phone.so.js",
    "/vendors/js/forms/cleave/addons/cleave-phone.sr.js": "/vendors/js/forms/cleave/addons/cleave-phone.sr.js",
    "/vendors/js/forms/cleave/addons/cleave-phone.ss.js": "/vendors/js/forms/cleave/addons/cleave-phone.ss.js",
    "/vendors/js/forms/cleave/addons/cleave-phone.st.js": "/vendors/js/forms/cleave/addons/cleave-phone.st.js",
    "/vendors/js/forms/cleave/addons/cleave-phone.sv.js": "/vendors/js/forms/cleave/addons/cleave-phone.sv.js",
    "/vendors/js/forms/cleave/addons/cleave-phone.sx.js": "/vendors/js/forms/cleave/addons/cleave-phone.sx.js",
    "/vendors/js/forms/cleave/addons/cleave-phone.sy.js": "/vendors/js/forms/cleave/addons/cleave-phone.sy.js",
    "/vendors/js/forms/cleave/addons/cleave-phone.sz.js": "/vendors/js/forms/cleave/addons/cleave-phone.sz.js",
    "/vendors/js/forms/cleave/addons/cleave-phone.ta.js": "/vendors/js/forms/cleave/addons/cleave-phone.ta.js",
    "/vendors/js/forms/cleave/addons/cleave-phone.tc.js": "/vendors/js/forms/cleave/addons/cleave-phone.tc.js",
    "/vendors/js/forms/cleave/addons/cleave-phone.td.js": "/vendors/js/forms/cleave/addons/cleave-phone.td.js",
    "/vendors/js/forms/cleave/addons/cleave-phone.tg.js": "/vendors/js/forms/cleave/addons/cleave-phone.tg.js",
    "/vendors/js/forms/cleave/addons/cleave-phone.th.js": "/vendors/js/forms/cleave/addons/cleave-phone.th.js",
    "/vendors/js/forms/cleave/addons/cleave-phone.tj.js": "/vendors/js/forms/cleave/addons/cleave-phone.tj.js",
    "/vendors/js/forms/cleave/addons/cleave-phone.tk.js": "/vendors/js/forms/cleave/addons/cleave-phone.tk.js",
    "/vendors/js/forms/cleave/addons/cleave-phone.tl.js": "/vendors/js/forms/cleave/addons/cleave-phone.tl.js",
    "/vendors/js/forms/cleave/addons/cleave-phone.tm.js": "/vendors/js/forms/cleave/addons/cleave-phone.tm.js",
    "/vendors/js/forms/cleave/addons/cleave-phone.tn.js": "/vendors/js/forms/cleave/addons/cleave-phone.tn.js",
    "/vendors/js/forms/cleave/addons/cleave-phone.to.js": "/vendors/js/forms/cleave/addons/cleave-phone.to.js",
    "/vendors/js/forms/cleave/addons/cleave-phone.tr.js": "/vendors/js/forms/cleave/addons/cleave-phone.tr.js",
    "/vendors/js/forms/cleave/addons/cleave-phone.tt.js": "/vendors/js/forms/cleave/addons/cleave-phone.tt.js",
    "/vendors/js/forms/cleave/addons/cleave-phone.tv.js": "/vendors/js/forms/cleave/addons/cleave-phone.tv.js",
    "/vendors/js/forms/cleave/addons/cleave-phone.tw.js": "/vendors/js/forms/cleave/addons/cleave-phone.tw.js",
    "/vendors/js/forms/cleave/addons/cleave-phone.tz.js": "/vendors/js/forms/cleave/addons/cleave-phone.tz.js",
    "/vendors/js/forms/cleave/addons/cleave-phone.ua.js": "/vendors/js/forms/cleave/addons/cleave-phone.ua.js",
    "/vendors/js/forms/cleave/addons/cleave-phone.ug.js": "/vendors/js/forms/cleave/addons/cleave-phone.ug.js",
    "/vendors/js/forms/cleave/addons/cleave-phone.us.js": "/vendors/js/forms/cleave/addons/cleave-phone.us.js",
    "/vendors/js/forms/cleave/addons/cleave-phone.uy.js": "/vendors/js/forms/cleave/addons/cleave-phone.uy.js",
    "/vendors/js/forms/cleave/addons/cleave-phone.uz.js": "/vendors/js/forms/cleave/addons/cleave-phone.uz.js",
    "/vendors/js/forms/cleave/addons/cleave-phone.va.js": "/vendors/js/forms/cleave/addons/cleave-phone.va.js",
    "/vendors/js/forms/cleave/addons/cleave-phone.vc.js": "/vendors/js/forms/cleave/addons/cleave-phone.vc.js",
    "/vendors/js/forms/cleave/addons/cleave-phone.ve.js": "/vendors/js/forms/cleave/addons/cleave-phone.ve.js",
    "/vendors/js/forms/cleave/addons/cleave-phone.vg.js": "/vendors/js/forms/cleave/addons/cleave-phone.vg.js",
    "/vendors/js/forms/cleave/addons/cleave-phone.vi.js": "/vendors/js/forms/cleave/addons/cleave-phone.vi.js",
    "/vendors/js/forms/cleave/addons/cleave-phone.vn.js": "/vendors/js/forms/cleave/addons/cleave-phone.vn.js",
    "/vendors/js/forms/cleave/addons/cleave-phone.vu.js": "/vendors/js/forms/cleave/addons/cleave-phone.vu.js",
    "/vendors/js/forms/cleave/addons/cleave-phone.wf.js": "/vendors/js/forms/cleave/addons/cleave-phone.wf.js",
    "/vendors/js/forms/cleave/addons/cleave-phone.ws.js": "/vendors/js/forms/cleave/addons/cleave-phone.ws.js",
    "/vendors/js/forms/cleave/addons/cleave-phone.xk.js": "/vendors/js/forms/cleave/addons/cleave-phone.xk.js",
    "/vendors/js/forms/cleave/addons/cleave-phone.ye.js": "/vendors/js/forms/cleave/addons/cleave-phone.ye.js",
    "/vendors/js/forms/cleave/addons/cleave-phone.yt.js": "/vendors/js/forms/cleave/addons/cleave-phone.yt.js",
    "/vendors/js/forms/cleave/addons/cleave-phone.za.js": "/vendors/js/forms/cleave/addons/cleave-phone.za.js",
    "/vendors/js/forms/cleave/addons/cleave-phone.zm.js": "/vendors/js/forms/cleave/addons/cleave-phone.zm.js",
    "/vendors/js/forms/cleave/addons/cleave-phone.zw.js": "/vendors/js/forms/cleave/addons/cleave-phone.zw.js",
    "/vendors/js/forms/cleave/cleave.min.js": "/vendors/js/forms/cleave/cleave.min.js",
    "/vendors/js/forms/extended/maxlength/bootstrap-maxlength.js": "/vendors/js/forms/extended/maxlength/bootstrap-maxlength.js",
    "/vendors/js/forms/extended/typeahead/bloodhound.min.js": "/vendors/js/forms/extended/typeahead/bloodhound.min.js",
    "/vendors/js/forms/extended/typeahead/handlebars.js": "/vendors/js/forms/extended/typeahead/handlebars.js",
    "/vendors/js/forms/extended/typeahead/typeahead.bundle.min.js": "/vendors/js/forms/extended/typeahead/typeahead.bundle.min.js",
    "/vendors/js/forms/repeater/jquery.repeater.min.js": "/vendors/js/forms/repeater/jquery.repeater.min.js",
    "/vendors/js/forms/select/select2.full.min.js": "/vendors/js/forms/select/select2.full.min.js",
    "/vendors/js/forms/spinner/jquery.bootstrap-touchspin.js": "/vendors/js/forms/spinner/jquery.bootstrap-touchspin.js",
    "/vendors/js/forms/toggle/switchery.js": "/vendors/js/forms/toggle/switchery.js",
    "/vendors/js/forms/toggle/switchery.min.js": "/vendors/js/forms/toggle/switchery.min.js",
    "/vendors/js/forms/validation/jquery.validate.min.js": "/vendors/js/forms/validation/jquery.validate.min.js",
    "/vendors/js/forms/wizard/bs-stepper.min.js": "/vendors/js/forms/wizard/bs-stepper.min.js",
    "/vendors/js/hammer/hammer.min.js": "/vendors/js/hammer/hammer.min.js",
    "/vendors/js/internationalization/i18n-jquery.min.js": "/vendors/js/internationalization/i18n-jquery.min.js",
    "/vendors/js/internationalization/i18n-xhr.min.js": "/vendors/js/internationalization/i18n-xhr.min.js",
    "/vendors/js/internationalization/i18n.min.js": "/vendors/js/internationalization/i18n.min.js",
    "/vendors/js/internationalization/lang-detector.min.js": "/vendors/js/internationalization/lang-detector.min.js",
    "/vendors/js/jkanban/jkanban.min.js": "/vendors/js/jkanban/jkanban.min.js",
    "/vendors/js/jquery/jquery.min.js": "/vendors/js/jquery/jquery.min.js",
    "/vendors/js/maps/leaflet.min.js": "/vendors/js/maps/leaflet.min.js",
    "/vendors/js/miscellaneous/countdown.min.js": "/vendors/js/miscellaneous/countdown.min.js",
    "/vendors/js/pace/pace.min.js": "/vendors/js/pace/pace.min.js",
    "/vendors/js/pagination/jquery.bootpag.min.js": "/vendors/js/pagination/jquery.bootpag.min.js",
    "/vendors/js/pagination/jquery.twbsPagination.min.js": "/vendors/js/pagination/jquery.twbsPagination.min.js",
    "/vendors/js/perfectscrollbar/perfect-scrollbar.min.js": "/vendors/js/perfectscrollbar/perfect-scrollbar.min.js",
    "/vendors/js/pickers/flatpickr/flatpickr.min.js": "/vendors/js/pickers/flatpickr/flatpickr.min.js",
    "/vendors/js/pickers/pickadate/legacy.js": "/vendors/js/pickers/pickadate/legacy.js",
    "/vendors/js/pickers/pickadate/picker.date.js": "/vendors/js/pickers/pickadate/picker.date.js",
    "/vendors/js/pickers/pickadate/picker.js": "/vendors/js/pickers/pickadate/picker.js",
    "/vendors/js/pickers/pickadate/picker.time.js": "/vendors/js/pickers/pickadate/picker.time.js",
    "/vendors/js/popper/popper.min.js": "/vendors/js/popper/popper.min.js",
    "/vendors/js/promises/promises.min.js": "/vendors/js/promises/promises.min.js",
    "/vendors/js/screenfull/screenfull.min.js": "/vendors/js/screenfull/screenfull.min.js",
    "/vendors/js/tables/ag-grid/ag-grid-community.min.noStyle.js": "/vendors/js/tables/ag-grid/ag-grid-community.min.noStyle.js",
    "/vendors/js/tables/datatable/buttons.bootstrap.min.js": "/vendors/js/tables/datatable/buttons.bootstrap.min.js",
    "/vendors/js/tables/datatable/buttons.bootstrap4.min.js": "/vendors/js/tables/datatable/buttons.bootstrap4.min.js",
    "/vendors/js/tables/datatable/buttons.html5.min.js": "/vendors/js/tables/datatable/buttons.html5.min.js",
    "/vendors/js/tables/datatable/buttons.print.min.js": "/vendors/js/tables/datatable/buttons.print.min.js",
    "/vendors/js/tables/datatable/datatables.bootstrap4.min.js": "/vendors/js/tables/datatable/datatables.bootstrap4.min.js",
    "/vendors/js/tables/datatable/datatables.buttons.min.js": "/vendors/js/tables/datatable/datatables.buttons.min.js",
    "/vendors/js/tables/datatable/datatables.checkboxes.min.js": "/vendors/js/tables/datatable/datatables.checkboxes.min.js",
    "/vendors/js/tables/datatable/datatables.min.js": "/vendors/js/tables/datatable/datatables.min.js",
    "/vendors/js/tables/datatable/dataTables.responsive.min.js": "/vendors/js/tables/datatable/dataTables.responsive.min.js",
    "/vendors/js/tables/datatable/dataTables.rowGroup.min.js": "/vendors/js/tables/datatable/dataTables.rowGroup.min.js",
    "/vendors/js/tables/datatable/dataTables.select.min.js": "/vendors/js/tables/datatable/dataTables.select.min.js",
    "/vendors/js/tables/datatable/jquery.dataTables.min.js": "/vendors/js/tables/datatable/jquery.dataTables.min.js",
    "/vendors/js/tables/datatable/jszip.min.js": "/vendors/js/tables/datatable/jszip.min.js",
    "/vendors/js/tables/datatable/pdfmake.min.js": "/vendors/js/tables/datatable/pdfmake.min.js",
    "/vendors/js/tables/datatable/responsive.bootstrap.min.js": "/vendors/js/tables/datatable/responsive.bootstrap.min.js",
    "/vendors/js/tables/datatable/responsive.bootstrap4.js": "/vendors/js/tables/datatable/responsive.bootstrap4.js",
    "/vendors/js/tables/datatable/responsive.bootstrap4.min.js": "/vendors/js/tables/datatable/responsive.bootstrap4.min.js",
    "/vendors/js/tables/datatable/vfs_fonts.js": "/vendors/js/tables/datatable/vfs_fonts.js",
    "/vendors/js/ui/affix.js": "/vendors/js/ui/affix.js",
    "/vendors/js/ui/blockUI.min.js": "/vendors/js/ui/blockUI.min.js",
    "/vendors/js/ui/jquery-sliding-menu.js": "/vendors/js/ui/jquery-sliding-menu.js",
    "/vendors/js/ui/jquery.matchHeight-min.js": "/vendors/js/ui/jquery.matchHeight-min.js",
    "/vendors/js/ui/jquery.sticky-kit.min.js": "/vendors/js/ui/jquery.sticky-kit.min.js",
    "/vendors/js/ui/jquery.sticky.js": "/vendors/js/ui/jquery.sticky.js",
    "/vendors/js/ui/popper.min.js": "/vendors/js/ui/popper.min.js",
    "/vendors/js/ui/prism-treeview.js": "/vendors/js/ui/prism-treeview.js",
    "/vendors/js/ui/prism.min.js": "/vendors/js/ui/prism.min.js",
    "/vendors/js/ui/unison.min.js": "/vendors/js/ui/unison.min.js",
    "/vendors/js/unison-js/unison-js.min.js": "/vendors/js/unison-js/unison-js.min.js",
    "/vendors/js/vendors.min.js": "/vendors/js/vendors.min.js",
    "/vendors/js/waves/waves.min.js": "/vendors/js/waves/waves.min.js",
    "/vendors/css/animate/animate.css": "/vendors/css/animate/animate.css",
    "/vendors/css/animate/animate.min.css": "/vendors/css/animate/animate.min.css",
    "/vendors/css/calendars/extensions/daygrid.min.css": "/vendors/css/calendars/extensions/daygrid.min.css",
    "/vendors/css/calendars/extensions/timegrid.min.css": "/vendors/css/calendars/extensions/timegrid.min.css",
    "/vendors/css/calendars/fullcalendar.min.css": "/vendors/css/calendars/fullcalendar.min.css",
    "/vendors/css/calendars/fullcalendar.print.css": "/vendors/css/calendars/fullcalendar.print.css",
    "/vendors/css/charts/apexcharts.css": "/vendors/css/charts/apexcharts.css",
    "/vendors/css/documentation.css": "/vendors/css/documentation.css",
    "/vendors/css/editors/quill/katex.min.css": "/vendors/css/editors/quill/katex.min.css",
    "/vendors/css/editors/quill/monokai-sublime.min.css": "/vendors/css/editors/quill/monokai-sublime.min.css",
    "/vendors/css/editors/quill/quill.bubble.css": "/vendors/css/editors/quill/quill.bubble.css",
    "/vendors/css/editors/quill/quill.snow.css": "/vendors/css/editors/quill/quill.snow.css",
    "/vendors/css/extensions/dataTables.checkboxes.css": "/vendors/css/extensions/dataTables.checkboxes.css",
    "/vendors/css/extensions/dragula.min.css": "/vendors/css/extensions/dragula.min.css",
    "/vendors/css/extensions/jquery.contextMenu.min.css": "/vendors/css/extensions/jquery.contextMenu.min.css",
    "/vendors/css/extensions/jquery.rateyo.min.css": "/vendors/css/extensions/jquery.rateyo.min.css",
    "/vendors/css/extensions/jstree.min.css": "/vendors/css/extensions/jstree.min.css",
    "/vendors/css/extensions/nouislider.min.css": "/vendors/css/extensions/nouislider.min.css",
    "/vendors/css/extensions/pace.css": "/vendors/css/extensions/pace.css",
    "/vendors/css/extensions/plyr.min.css": "/vendors/css/extensions/plyr.min.css",
    "/vendors/css/extensions/shepherd.min.css": "/vendors/css/extensions/shepherd.min.css",
    "/vendors/css/extensions/sweetalert2.min.css": "/vendors/css/extensions/sweetalert2.min.css",
    "/vendors/css/extensions/swiper.min.css": "/vendors/css/extensions/swiper.min.css",
    "/vendors/css/extensions/tether-theme-arrows.css": "/vendors/css/extensions/tether-theme-arrows.css",
    "/vendors/css/extensions/tether.min.css": "/vendors/css/extensions/tether.min.css",
    "/vendors/css/extensions/toastr.min.css": "/vendors/css/extensions/toastr.min.css",
    "/vendors/css/extensions/unslider.css": "/vendors/css/extensions/unslider.css",
    "/vendors/css/feather-icons/feather-icons.min.css": "/vendors/css/feather-icons/feather-icons.min.css",
    "/vendors/css/file-uploaders/dropzone.min.css": "/vendors/css/file-uploaders/dropzone.min.css",
    "/vendors/css/flag-icons/flag-icons.min.css": "/vendors/css/flag-icons/flag-icons.min.css",
    "/vendors/css/forms/select/select2.min.css": "/vendors/css/forms/select/select2.min.css",
    "/vendors/css/forms/spinner/jquery.bootstrap-touchspin.css": "/vendors/css/forms/spinner/jquery.bootstrap-touchspin.css",
    "/vendors/css/forms/toggle/switchery.css": "/vendors/css/forms/toggle/switchery.css",
    "/vendors/css/forms/toggle/switchery.min.css": "/vendors/css/forms/toggle/switchery.min.css",
    "/vendors/css/forms/wizard/bs-stepper.min.css": "/vendors/css/forms/wizard/bs-stepper.min.css",
    "/vendors/css/jkanban/jkanban.min.css": "/vendors/css/jkanban/jkanban.min.css",
    "/vendors/css/maps/leaflet.min.css": "/vendors/css/maps/leaflet.min.css",
    "/vendors/css/modal/facebook.css": "/vendors/css/modal/facebook.css",
    "/vendors/css/modal/google.css": "/vendors/css/modal/google.css",
    "/vendors/css/modal/twitter.css": "/vendors/css/modal/twitter.css",
    "/vendors/css/pace/pace.min.css": "/vendors/css/pace/pace.min.css",
    "/vendors/css/perfect-scrollbar/perfect-scrollbar.min.css": "/vendors/css/perfect-scrollbar/perfect-scrollbar.min.css",
    "/vendors/css/pickers/flatpickr/flatpickr.min.css": "/vendors/css/pickers/flatpickr/flatpickr.min.css",
    "/vendors/css/pickers/pickadate/classic.css": "/vendors/css/pickers/pickadate/classic.css",
    "/vendors/css/pickers/pickadate/classic.date.css": "/vendors/css/pickers/pickadate/classic.date.css",
    "/vendors/css/pickers/pickadate/classic.time.css": "/vendors/css/pickers/pickadate/classic.time.css",
    "/vendors/css/pickers/pickadate/default.css": "/vendors/css/pickers/pickadate/default.css",
    "/vendors/css/pickers/pickadate/default.time.css": "/vendors/css/pickers/pickadate/default.time.css",
    "/vendors/css/pickers/pickadate/pickadate.css": "/vendors/css/pickers/pickadate/pickadate.css",
    "/vendors/css/tables/ag-grid/ag-grid.css": "/vendors/css/tables/ag-grid/ag-grid.css",
    "/vendors/css/tables/ag-grid/ag-theme-material.css": "/vendors/css/tables/ag-grid/ag-theme-material.css",
    "/vendors/css/tables/datatable/buttons.bootstrap4.min.css": "/vendors/css/tables/datatable/buttons.bootstrap4.min.css",
    "/vendors/css/tables/datatable/dataTables.bootstrap4.min.css": "/vendors/css/tables/datatable/dataTables.bootstrap4.min.css",
    "/vendors/css/tables/datatable/datatables.min.css": "/vendors/css/tables/datatable/datatables.min.css",
    "/vendors/css/tables/datatable/extensions/dataTables.checkboxes.css": "/vendors/css/tables/datatable/extensions/dataTables.checkboxes.css",
    "/vendors/css/tables/datatable/responsive.bootstrap.min.css": "/vendors/css/tables/datatable/responsive.bootstrap.min.css",
    "/vendors/css/tables/datatable/responsive.bootstrap4.min.css": "/vendors/css/tables/datatable/responsive.bootstrap4.min.css",
    "/vendors/css/tables/datatable/rowGroup.bootstrap4.min.css": "/vendors/css/tables/datatable/rowGroup.bootstrap4.min.css",
    "/vendors/css/tables/datatable/select.dataTables.min.css": "/vendors/css/tables/datatable/select.dataTables.min.css",
    "/vendors/css/ui/prism-treeview.css": "/vendors/css/ui/prism-treeview.css",
    "/vendors/css/ui/prism.min.css": "/vendors/css/ui/prism.min.css",
    "/vendors/css/vendors-rtl.min.css": "/vendors/css/vendors-rtl.min.css",
    "/vendors/css/vendors.min.css": "/vendors/css/vendors.min.css",
    "/vendors/css/waves/waves.min.css": "/vendors/css/waves/waves.min.css",
    "/vendors/css/weather-icons/climacons.min.css": "/vendors/css/weather-icons/climacons.min.css",
    "/fonts/feather/iconfont.css": "/fonts/feather/iconfont.css",
    "/fonts/flag-icon-css/css/flag-icon.css": "/fonts/flag-icon-css/css/flag-icon.css",
    "/fonts/flag-icon-css/css/flag-icon.min.css": "/fonts/flag-icon-css/css/flag-icon.min.css",
    "/fonts/font-awesome/css/font-awesome.css": "/fonts/font-awesome/css/font-awesome.css",
    "/fonts/font-awesome/css/font-awesome.min.css": "/fonts/font-awesome/css/font-awesome.min.css"
}
